{
    "KPlugin": {
        "Icon": "ark",
        "MimeTypes": [
            "application/octet-stream"
        ],
        "Name": "'Extract' service menu",
        "Name[ar]": "قائمة خدمة 'استخرج'",
        "Name[ast]": "Menú del serviciu «Extract»",
        "Name[az]": "'Çıxartmaq' xidməti menyusu",
        "Name[bg]": "Меню 'Извличане'",
        "Name[ca@valencia]": "Menú de servei «Extrau»",
        "Name[ca]": "Menú de servei «Extreu»",
        "Name[cs]": "Servisní nabídka 'Rozbalit'",
        "Name[da]": "\"Udpak\"-servicemenu",
        "Name[de]": "„Entpacken“ im Servicemenü",
        "Name[el]": "Μενού υπηρεσίας 'Αποσυμπίεσης'",
        "Name[en_GB]": "'Extract' service menu",
        "Name[es]": "Menú de servicio para «Extraer»",
        "Name[et]": "Lahtipakkimise teenusemenüü",
        "Name[eu]": "'Erauzi' zerbitzu menua",
        "Name[fi]": "Pura-palveluvalikko",
        "Name[fr]": "Menu de service « extraire »",
        "Name[gl]": "Menú de servizo «Extraer»",
        "Name[he]": "תפריט שירות \"חילוץ\"",
        "Name[hu]": "„Kibontás” szolgáltatás menü",
        "Name[ia]": "Menu de servicio de 'Extraher'",
        "Name[id]": "Menu layanan 'Ekstrak'",
        "Name[it]": "Menu di servizio «Estrai»",
        "Name[ja]": "'展開'サービスメニュー",
        "Name[ko]": "'압축 풀기' 서비스 메뉴",
        "Name[nl]": "Servicemenu 'Uitpakken'",
        "Name[nn]": "«Pakk ut»-tenestemeny",
        "Name[pl]": "Menu usługi 'Wypakuj'",
        "Name[pt]": "Menu do serviço 'Extrair'",
        "Name[pt_BR]": "Menu do serviço 'Extrair'",
        "Name[ro]": "Meniu de serviciu „Extragere”",
        "Name[ru]": "Меню действий «Распаковать»",
        "Name[sk]": "Servisná ponuka 'Rozbaliť'",
        "Name[sl]": "Meni storitve razširjanja",
        "Name[sr@ijekavian]": "Сервисни мени распакивања",
        "Name[sr@ijekavianlatin]": "Servisni meni raspakivanja",
        "Name[sr@latin]": "Servisni meni raspakivanja",
        "Name[sr]": "Сервисни мени распакивања",
        "Name[sv]": "'Tjänstmeny 'Packa upp'",
        "Name[ta]": "பிரித்தெடுப்பதற்கான சேவைப்பட்டி",
        "Name[tr]": "'Çıkar' servis menüsü",
        "Name[uk]": "Службове меню «Видобути»",
        "Name[x-test]": "xx'Extract' service menuxx",
        "Name[zh_CN]": "“解压缩”服务菜单",
        "Name[zh_TW]": "「解壓縮」服務選單"
    },
    "MimeType": "application/octet-stream;"
}
